^C:\USERS\SNOWN\DOCUMENTS\COMP3512\ASSIGNMENTS\ASSIGNMENT1\BLIZZARD.CPP|C:\USERS\SNOWN\DOCUMENTS\COMP3512\ASSIGNMENTS\ASSIGNMENT1\CANDY.CPP|C:\USERS\SNOWN\DOCUMENTS\COMP3512\ASSIGNMENTS\ASSIGNMENT1\CONE.CPP|C:\USERS\SNOWN\DOCUMENTS\COMP3512\ASSIGNMENTS\ASSIGNMENT1\DONUT.CPP|C:\USERS\SNOWN\DOCUMENTS\COMP3512\ASSIGNMENTS\ASSIGNMENT1\ICECREAM.CPP|C:\USERS\SNOWN\DOCUMENTS\COMP3512\ASSIGNMENTS\ASSIGNMENT1\ITEM.CPP|C:\USERS\SNOWN\DOCUMENTS\COMP3512\ASSIGNMENTS\ASSIGNMENT1\MAIN.CPP|C:\USERS\SNOWN\DOCUMENTS\COMP3512\ASSIGNMENTS\ASSIGNMENT1\SHOPPINGCART.CPP
C:\USERS\SNOWN\DOCUMENTS\COMP3512\ASSIGNMENTS\ASSIGNMENT1\DEBUG\VC141.PDB
C:\USERS\SNOWN\DOCUMENTS\COMP3512\ASSIGNMENTS\ASSIGNMENT1\DEBUG\VC141.IDB
C:\USERS\SNOWN\DOCUMENTS\COMP3512\ASSIGNMENTS\ASSIGNMENT1\DEBUG\BLIZZARD.OBJ
C:\USERS\SNOWN\DOCUMENTS\COMP3512\ASSIGNMENTS\ASSIGNMENT1\DEBUG\CANDY.OBJ
C:\USERS\SNOWN\DOCUMENTS\COMP3512\ASSIGNMENTS\ASSIGNMENT1\DEBUG\CONE.OBJ
C:\USERS\SNOWN\DOCUMENTS\COMP3512\ASSIGNMENTS\ASSIGNMENT1\DEBUG\DONUT.OBJ
C:\USERS\SNOWN\DOCUMENTS\COMP3512\ASSIGNMENTS\ASSIGNMENT1\DEBUG\ICECREAM.OBJ
C:\USERS\SNOWN\DOCUMENTS\COMP3512\ASSIGNMENTS\ASSIGNMENT1\DEBUG\ITEM.OBJ
C:\USERS\SNOWN\DOCUMENTS\COMP3512\ASSIGNMENTS\ASSIGNMENT1\DEBUG\MAIN.OBJ
C:\USERS\SNOWN\DOCUMENTS\COMP3512\ASSIGNMENTS\ASSIGNMENT1\DEBUG\SHOPPINGCART.OBJ
^C:\USERS\SNOWN\DOCUMENTS\COMP3512\ASSIGNMENTS\ASSIGNMENT1\BLIZZARD.CPP
C:\USERS\SNOWN\DOCUMENTS\COMP3512\ASSIGNMENTS\ASSIGNMENT1\DEBUG\VC141.PDB
^C:\USERS\SNOWN\DOCUMENTS\COMP3512\ASSIGNMENTS\ASSIGNMENT1\CANDY.CPP
C:\USERS\SNOWN\DOCUMENTS\COMP3512\ASSIGNMENTS\ASSIGNMENT1\DEBUG\VC141.PDB
^C:\USERS\SNOWN\DOCUMENTS\COMP3512\ASSIGNMENTS\ASSIGNMENT1\CONE.CPP
C:\USERS\SNOWN\DOCUMENTS\COMP3512\ASSIGNMENTS\ASSIGNMENT1\DEBUG\VC141.PDB
^C:\USERS\SNOWN\DOCUMENTS\COMP3512\ASSIGNMENTS\ASSIGNMENT1\DONUT.CPP
C:\USERS\SNOWN\DOCUMENTS\COMP3512\ASSIGNMENTS\ASSIGNMENT1\DEBUG\VC141.PDB
^C:\USERS\SNOWN\DOCUMENTS\COMP3512\ASSIGNMENTS\ASSIGNMENT1\ICECREAM.CPP
C:\USERS\SNOWN\DOCUMENTS\COMP3512\ASSIGNMENTS\ASSIGNMENT1\DEBUG\VC141.PDB
^C:\USERS\SNOWN\DOCUMENTS\COMP3512\ASSIGNMENTS\ASSIGNMENT1\ITEM.CPP
C:\USERS\SNOWN\DOCUMENTS\COMP3512\ASSIGNMENTS\ASSIGNMENT1\DEBUG\VC141.PDB
^C:\USERS\SNOWN\DOCUMENTS\COMP3512\ASSIGNMENTS\ASSIGNMENT1\MAIN.CPP
C:\USERS\SNOWN\DOCUMENTS\COMP3512\ASSIGNMENTS\ASSIGNMENT1\DEBUG\VC141.PDB
^C:\USERS\SNOWN\DOCUMENTS\COMP3512\ASSIGNMENTS\ASSIGNMENT1\SHOPPINGCART.CPP
C:\USERS\SNOWN\DOCUMENTS\COMP3512\ASSIGNMENTS\ASSIGNMENT1\DEBUG\VC141.PDB
